{
  "version": "1.0.0-*",

  //"buildOptions": {
  //  "preserveCompilationContext": true
  //},

  "testRunner": "xunit",

  "dependencies": {
    "dotnet-test-xunit": "2.2.0-preview2-build1029",
    "Microsoft.NETCore.App": {
      "version": "1.0.0",
      "type": "platform"
    },
    "Moq": "4.6.38-alpha",
    "PackageManager.Host": "1.0.0-*",
    "Shouldly": "2.8.2",
    "System.Diagnostics.TraceSource": "4.0.0",
    "TestStack.BDDfy": "4.3.1",
    "xunit": "2.2.0-beta2-build3300",
    "AutoMapper": "5.1.1",
    "Microsoft.EntityFrameworkCore.InMemory": "1.0.0",
    "FluentValidation.AspNetCore": "6.4.0-beta3",
    "Flurl.Http": "1.0.1",
    "BinaryMash.Responses": "1.0.0-*",
    "StyleCop.Analyzers": {
      "version": "1.0.0",
      "type": "build"
    }
  },

  "frameworks": {
    "netcoreapp1.0": {
      "imports": [
        "dotnet5.6",
        "dnxcore50",
        "portable-net45+win8"
      ]
    }
  },

  "buildOptions": {
    "embed": [
      "Neo4j/TestData/**/*.json"
    ],
    "additionalArguments": [
      "/ruleset:../../ruleset.ruleset"
    ]
  }

  //"tools": {
  //  "Microsoft.DotNet.Watcher.Tools": {
  //    "version": "1.0.0-*",
  //    "imports": "portable-net451+win8"
  //  }
  //}
}
